<svg width="28" height="28" viewBox="0 0 28 28" fill="none" xmlns="http://www.w3.org/2000/svg">
<path d="M13.993 17.5L14.6102 16.8933L19.8205 11.7192L18.5862 10.5L13.993 15.0605L9.401 10.5L8.16666 11.7192L13.3758 16.8933L13.993 17.5Z" fill="black"/>
</svg>
