<svg width="69" height="69" viewBox="0 0 69 69" fill="none" xmlns="http://www.w3.org/2000/svg">
<path d="M34.5 4C38.5053 4 42.4714 4.78891 46.1718 6.32167C49.8723 7.85444 53.2346 10.1011 56.0668 12.9332C58.8989 15.7654 61.1456 19.1277 62.6783 22.8282C64.2111 26.5286 65 30.4947 65 34.5C65 38.5053 64.2111 42.4714 62.6783 46.1719C61.1456 49.8723 58.8989 53.2346 56.0668 56.0668C53.2346 58.8989 49.8723 61.1456 46.1718 62.6783C42.4714 64.2111 38.5053 65 34.5 65C30.4947 65 26.5286 64.2111 22.8281 62.6783C19.1277 61.1456 15.7654 58.8989 12.9332 56.0667C10.101 53.2346 7.85444 49.8723 6.32167 46.1718C4.7889 42.4714 4 38.5053 4 34.5C4 30.4947 4.78891 26.5286 6.32168 22.8281C7.85445 19.1277 10.1011 15.7654 12.9333 12.9332C15.7654 10.101 19.1277 7.85443 22.8282 6.32167C26.5286 4.7889 30.4947 4 34.5 4L34.5 4Z" stroke="#EFF3E1" stroke-width="8" stroke-linecap="round" stroke-linejoin="round"/>
<path d="M34.5 4C40.941 4 47.2166 6.03908 52.4275 9.82498C57.6383 13.6109 61.5169 18.9493 63.5072 25.075C65.4976 31.2007 65.4976 37.7993 63.5072 43.925C61.5169 50.0507 57.6383 55.3891 52.4274 59.175" stroke="url(#paint0_linear_3_3527)" stroke-width="8" stroke-linecap="round" stroke-linejoin="round"/>
<defs>
<linearGradient id="paint0_linear_3_3527" x1="34.5" y1="4" x2="34.5" y2="65" gradientUnits="userSpaceOnUse">
<stop stop-color="#C2F01D"/>
<stop offset="1" stop-color="#91B70C"/>
</linearGradient>
</defs>
</svg>
